<?xml version="1.0" encoding="iso-8859-1"?>
<!-- Generator: Adobe Illustrator 19.0.0, SVG Export Plug-In . SVG Version: 6.00 Build 0)  -->
<svg version="1.1" id="Layer_1" xmlns="http://www.w3.org/2000/svg" xmlns:xlink="http://www.w3.org/1999/xlink" x="0px" y="0px"
	 viewBox="0 0 512 512" style="enable-background:new 0 0 512 512;" xml:space="preserve">
<path style="fill:#E592BF;" d="M418.909,23.273l-11.636,162.909h11.636c44.986,0,81.455-36.468,81.455-81.455
	S463.895,23.273,418.909,23.273z"/>
<path style="fill:#EBAFD1;" d="M93.091,23.273c-44.986,0-81.455,36.468-81.455,81.455s36.468,81.455,81.455,81.455h11.636
	L93.091,23.273z"/>
<path style="fill:#88888F;" d="M93.091,23.273L162.909,128h186.182l69.818-104.727v290.909H512
	c-32.133,0-58.182,26.049-58.182,58.182c0,64.265-52.098,116.364-116.364,116.364H174.545c-64.266,0-116.364-52.098-116.364-116.364
	c0-32.133-26.049-58.182-58.182-58.182h93.091V23.273z"/>
<path style="fill:#797781;" d="M418.909,314.182V23.273L349.091,128H256v360.727h81.455c64.265,0,116.364-52.098,116.364-116.364
	c0-32.133,26.049-58.182,58.182-58.182H418.909z"/>
<circle style="fill:#F8F8F9;" cx="139.636" cy="256" r="69.818"/>
<circle style="fill:#EDEDED;" cx="372.364" cy="256" r="69.818"/>
<path style="fill:#58575D;" d="M139.636,279.273h-0.003c-12.831,0-23.269-10.44-23.269-23.273
	c0.005-12.835,10.445-23.273,23.273-23.273c12.833,0,23.273,10.44,23.273,23.273C162.909,268.833,152.469,279.273,139.636,279.273z"
	/>
<path style="fill:#454449;" d="M372.364,279.273h-0.003c-12.831,0-23.269-10.44-23.269-23.273
	c0.005-12.835,10.445-23.273,23.273-23.273c12.833,0,23.273,10.44,23.273,23.273C395.636,268.833,385.196,279.273,372.364,279.273z"
	/>
<ellipse style="fill:#EBAFD1;" cx="256" cy="290.909" rx="46.545" ry="34.909"/>
<rect x="157.091" y="395.636" style="fill:#F8F8F9;" width="34.909" height="34.909"/>
<rect x="320" y="395.636" style="fill:#EDEDED;" width="34.909" height="34.909"/>
<path style="fill:#E592BF;" d="M256,256v69.818c25.706,0,46.545-15.63,46.545-34.909S281.706,256,256,256z"/>
<rect x="128" y="366.545" style="fill:#454449;" width="256" height="34.909"/>
<g>
</g>
<g>
</g>
<g>
</g>
<g>
</g>
<g>
</g>
<g>
</g>
<g>
</g>
<g>
</g>
<g>
</g>
<g>
</g>
<g>
</g>
<g>
</g>
<g>
</g>
<g>
</g>
<g>
</g>
</svg>
